<?xml version="1.0" encoding="utf-8"?>
<!-- Generator: Adobe Illustrator 21.1.0, SVG Export Plug-In . SVG Version: 6.00 Build 0)  -->
<svg version="1.1" id="图层_1" xmlns="http://www.w3.org/2000/svg" xmlns:xlink="http://www.w3.org/1999/xlink" x="0px" y="0px"
	 viewBox="0 0 208 36.5" style="enable-background:new 0 0 208 36.5;" xml:space="preserve">
<g>
	<g>
		<path d="M31.4,35.2H13c-4.3,0-7.8-3.5-7.8-7.8V9.1c0-4.3,3.5-7.8,7.8-7.8h18.4c4.3,0,7.8,3.5,7.8,7.8v18.4
			C39.2,31.7,35.7,35.2,31.4,35.2z M13,2.7c-3.5,0-6.3,2.8-6.3,6.3v18.4c0,3.5,2.8,6.3,6.3,6.3h18.4c3.5,0,6.3-2.8,6.3-6.3V9.1
			c0-3.5-2.8-6.3-6.3-6.3H13z"/>
	</g>
	<path d="M17.8,8.9l-2.7,8.4h13.6l3.4-3.8c0.2-0.2,0.2-0.6,0.1-0.8l-2.4-3.8H17.8z"/>
	<path d="M14.8,18.4l-2.7,8.4h15.4L31,23c0.2-0.2,0.2-0.6,0.1-0.8l-2.4-3.8H14.8z"/>
	<g>
		<path d="M58.7,17.8c2.1,0.6,3.2,1.7,3.2,3.3v7.3c0,2.9-1.5,4.4-4.4,4.4h-7.9V3.6h6.7c3.5,0,5.2,1.8,5.2,5.3v5.6
			c0,1.7-0.9,2.7-2.8,3.1V17.8z M53.5,16h1.8c1.5,0,2.2-0.7,2.2-2.1V9.3c0-1.4-0.6-2.1-1.8-2.1h-2.3V16z M53.5,29.3h2.9
			c1,0,1.5-0.4,1.5-1.3v-6.5c0-1.4-0.8-2.1-2.3-2.1h-2.2V29.3z"/>
		<path d="M74.5,32.9h-9.3V3.6h3.9v25.7h5.4V32.9z"/>
		<path d="M80.4,32.9h-3.9V8.6c0-3.3,1.6-5,4.7-5h2.9c3.1,0,4.7,1.7,4.7,5v24.2h-3.9V22.2h-4.5V32.9z M84.9,18.6V8.9
			c0-1.1-0.6-1.7-1.7-1.7h-1.1c-1.1,0-1.7,0.6-1.7,1.7v9.7H84.9z"/>
		<path d="M104,26v1.9c0,3.3-1.6,5-4.7,5h-2.5c-3.1,0-4.7-1.7-4.7-5V8.6c0-3.3,1.6-5,4.7-5h2.5c3.1,0,4.7,1.7,4.7,5v3.3h-3.9v-3
			c0-1.1-0.6-1.7-1.8-1.7h-0.8c-1,0-1.5,0.6-1.5,1.7v18.7c0,1.1,0.5,1.7,1.5,1.7h1c1,0,1.5-0.6,1.5-1.7V26H104z"/>
		<path d="M110.9,32.9H107V3.6h3.9V32.9z M119.9,32.9H116l-4.9-14.3v-0.2l4.1-14.7h3.6l-4.1,14.5L119.9,32.9z"/>
		<path d="M136.2,11.5V8.9c0-1.2-0.6-1.8-1.7-1.8h-0.6c-1.1,0-1.7,0.6-1.7,1.8v4.8c0,0.5,0.1,0.9,0.3,1.1c0.2,0.2,0.6,0.4,1.1,0.7
			l3.7,2c0.8,0.5,1.4,0.8,1.7,1.1c0.3,0.3,0.6,0.6,0.8,0.9c0.2,0.4,0.3,1.1,0.3,2.1v6.2c0,3.3-1.6,4.9-4.7,4.9H133
			c-3.1,0-4.7-1.8-4.7-5.4V26h3.9v1.6c0,1.1,0.6,1.7,1.8,1.7h0.7c1,0,1.5-0.6,1.5-1.7v-5c0-0.5-0.1-0.9-0.3-1.1
			c-0.2-0.2-0.6-0.4-1.1-0.7l-3.7-2.1c-0.8-0.4-1.4-0.8-1.8-1.1c-0.4-0.3-0.6-0.7-0.8-1.2c-0.2-0.5-0.2-1.1-0.2-1.9v-6
			c0-3.3,1.6-5,4.7-5h2.4c3.1,0,4.7,1.7,4.7,5v2.9H136.2z"/>
		<path d="M143.4,32.9V3.6h9.7v3.5h-5.8V16h5.1v3.5h-5.1v9.7h5.8v3.5H143.4z"/>
		<path d="M155.9,3.6h7.7c3,0,4.5,1.7,4.5,5v7.2c0,2.6-0.8,4.2-2.3,4.8l2.7,12.2h-3.7l-2.6-11.8h-2.4v11.8h-3.9V3.6z M159.8,17.7
			h2.6c1.2,0,1.8-0.7,1.8-2.1V9.3c0-1.4-0.6-2.1-1.8-2.1h-2.6V17.7z"/>
		<path d="M171.3,32.9V3.6h3.9v29.3H171.3z"/>
		<path d="M178.9,32.9V3.6h9.7v3.5h-5.8V16h5.1v3.5h-5.1v9.7h5.8v3.5H178.9z"/>
		<path d="M198.9,11.5V8.9c0-1.2-0.6-1.8-1.7-1.8h-0.6c-1.1,0-1.7,0.6-1.7,1.8v4.8c0,0.5,0.1,0.9,0.3,1.1c0.2,0.2,0.6,0.4,1.1,0.7
			l3.7,2c0.8,0.5,1.4,0.8,1.7,1.1c0.3,0.3,0.6,0.6,0.8,0.9c0.2,0.4,0.3,1.1,0.3,2.1v6.2c0,3.3-1.6,4.9-4.7,4.9h-2.4
			c-3.1,0-4.7-1.8-4.7-5.4V26h3.9v1.6c0,1.1,0.6,1.7,1.8,1.7h0.7c1,0,1.5-0.6,1.5-1.7v-5c0-0.5-0.1-0.9-0.3-1.1
			c-0.2-0.2-0.6-0.4-1.1-0.7l-3.7-2.1c-0.8-0.4-1.4-0.8-1.8-1.1c-0.4-0.3-0.6-0.7-0.8-1.2c-0.2-0.5-0.2-1.1-0.2-1.9v-6
			c0-3.3,1.6-5,4.7-5h2.4c3.1,0,4.7,1.7,4.7,5v2.9H198.9z"/>
	</g>
</g>
</svg>
